<?xml version="1.0" encoding="UTF-8" standalone="no"?>
<svg
   version="1.0"
   width="192.000000pt"
   height="192.000000pt"
   viewBox="0 0 192.000000 192.000000"
   preserveAspectRatio="xMidYMid meet"
   id="svg55"
   sodipodi:docname="dcoder-logo-dark.svg"
   inkscape:version="1.1.2 (0a00cf5339, 2022-02-04)"
   xmlns:inkscape="http://www.inkscape.org/namespaces/inkscape"
   xmlns:sodipodi="http://sodipodi.sourceforge.net/DTD/sodipodi-0.dtd"
   xmlns="http://www.w3.org/2000/svg"
   xmlns:svg="http://www.w3.org/2000/svg">
  <defs
     id="defs59" />
  <sodipodi:namedview
     id="namedview57"
     pagecolor="#ffffff"
     bordercolor="#666666"
     borderopacity="1.0"
     inkscape:pageshadow="2"
     inkscape:pageopacity="0.0"
     inkscape:pagecheckerboard="0"
     inkscape:document-units="pt"
     showgrid="false"
     inkscape:zoom="3.1328125"
     inkscape:cx="127.8404"
     inkscape:cy="128"
     inkscape:window-width="1920"
     inkscape:window-height="1011"
     inkscape:window-x="0"
     inkscape:window-y="32"
     inkscape:window-maximized="1"
     inkscape:current-layer="svg55" />
  <g
     transform="translate(0.000000,192.000000) scale(0.100000,-0.100000)"
     fill="#FFFFFF"
     stroke="none"
     id="g53">
    <path
       d="M805 1890 c-306 -48 -586 -263 -720 -553 -75 -163 -84 -255 -85 -848 0 -375 2 -448 14 -458 11 -9 149 -11 558 -9 l543 4 96 26 c175 48 310 129 444 269 184 192 259 379 258 644 -1 156 -28 276 -91 401 -122 243 -361 438 -620 505 -89 23 -303 33 -397 19z m336 -368 c326 -114 474 -526 306 -847 -42 -78 -155 -192 -233 -233 -106 -55 -139 -59 -494 -63 l-325 -4 0 350 1 350 27 81 c43 128 138 250 249 320 126 80 320 99 469 46z"
       id="path51" />
  </g>
</svg>
